Simulation/router_fsm.vcd
$date
	Tue Jun 23 15:19:07 2026
$end
$version
	Icarus Verilog
$end
$timescale
	1s
$end
$scope module router_fsm_tb $end
$var wire 1 ! write_enb_reg $end
$var wire 1 " rst_int_reg $end
$var wire 1 # lfd_state $end
$var wire 1 $ ld_state $end
$var wire 1 % laf_state $end
$var wire 1 & full_state $end
$var wire 1 ' detect_add $end
$var wire 1 ( busy $end
$var parameter 3 ) CHECK_PARITY_ERROR $end
$var parameter 3 * DECODE_ADDRESS $end
$var parameter 3 + FIFO_FULL_STATE $end
$var parameter 3 , LOAD_AFTER_FULL $end
$var parameter 3 - LOAD_DATA $end
$var parameter 3 . LOAD_FIRST_DATA $end
$var parameter 3 / LOAD_PARITY $end
$var parameter 3 0 WAIT_TILL_EMPTY $end
$var parameter 32 1 cycle $end
$var reg 1 2 clock $end
$var reg 2 3 data_in [1:0] $end
$var reg 1 4 fifo_empty_0 $end
$var reg 1 5 fifo_empty_1 $end
$var reg 1 6 fifo_empty_2 $end
$var reg 1 7 fifo_full $end
$var reg 1 8 low_packet_valid $end
$var reg 1 9 parity_done $end
$var reg 1 : pkt_valid $end
$var reg 1 ; resetn $end
$var reg 1 < soft_reset_0 $end
$var reg 1 = soft_reset_1 $end
$var reg 1 > soft_reset_2 $end
$var reg 25 ? string_cmd [24:0] $end
$scope module DUT $end
$var wire 1 2 clock $end
$var wire 2 @ data_in [1:0] $end
$var wire 1 4 fifo_empty_0 $end
$var wire 1 5 fifo_empty_1 $end
$var wire 1 6 fifo_empty_2 $end
$var wire 1 7 fifo_full $end
$var wire 1 8 low_packet_valid $end
$var wire 1 9 parity_done $end
$var wire 1 : pkt_valid $end
$var wire 1 ; resetn $end
$var wire 1 < soft_reset_0 $end
$var wire 1 = soft_reset_1 $end
$var wire 1 > soft_reset_2 $end
$var wire 1 ! write_enb_reg $end
$var wire 1 " rst_int_reg $end
$var wire 1 # lfd_state $end
$var wire 1 $ ld_state $end
$var wire 1 % laf_state $end
$var wire 1 & full_state $end
$var wire 1 ' detect_add $end
$var wire 1 ( busy $end
$var parameter 3 A CHECK_PARITY_ERROR $end
$var parameter 3 B DECODE_ADDRESS $end
$var parameter 3 C FIFO_FULL_STATE $end
$var parameter 3 D LOAD_AFTER_FULL $end
$var parameter 3 E LOAD_DATA $end
$var parameter 3 F LOAD_FIRST_DATA $end
$var parameter 3 G LOAD_PARITY $end
$var parameter 3 H WAIT_TILL_EMPTY $end
$var reg 3 I NS [2:0] $end
$var reg 3 J PS [2:0] $end
$upscope $end
$scope task initialize $end
$upscope $end
$scope task rst $end
$upscope $end
$scope task t1 $end
$upscope $end
$scope task t2 $end
$upscope $end
$scope task t3 $end
$upscope $end
$scope task t4 $end
$upscope $end
$upscope $end
$enddefinitions $end
$comment Show the parameter values. $end
$dumpall
b11 H
b101 G
b1 F
b10 E
b111 D
b110 C
b0 B
b100 A
b1010 1
b11 0
b101 /
b1 .
b10 -
b111 ,
b110 +
b0 *
b100 )
$end
#0
$dumpvars
bx J
bx I
bx @
bx ?
x>
x=
x<
x;
x:
x9
x8
x7
x6
x5
x4
bx 3
12
x(
x'
x&
x%
x$
x#
x"
x!
$end
#10
0;
02
#20
0(
0!
1'
0&
0#
0$
0%
0"
b0 I
b100010001000001 ?
b0 J
12
#30
0:
04
05
06
07
09
08
1;
02
#40
12
#50
b1 I
14
b0 3
b0 @
1:
02
#60
1(
0'
1#
b10 I
b10011000100011001000100 ?
b1 J
12
#70
02
#80
0(
1!
0#
1$
b10 I
b100110001000100 ?
b10 J
12
#90
b101 I
0:
02
#100
1(
0$
b100 I
b100110001010000 ?
b101 J
12
#110
02
#120
0!
1"
b0 I
b10000110101000001000101 ?
b100 J
12
#130
02
#140
0(
1'
0"
b100010001000001 ?
b0 J
12
#150
0;
02
#160
12
#170
1;
02
#180
12
#190
02
#200
12
#210
b1 I
1:
02
#220
1(
0'
1#
b10 I
b10011000100011001000100 ?
b1 J
12
#230
02
#240
0(
1!
0#
1$
b10 I
b100110001000100 ?
b10 J
12
#250
b110 I
17
02
#260
1(
0!
1&
0$
b110 I
b10001100100011001010011 ?
b110 J
12
#270
b111 I
07
02
#280
1!
0&
1%
b10 I
b10011000100000101000110 ?
b111 J
12
#290
b101 I
18
02
#300
1!
0%
b100 I
b100110001010000 ?
b101 J
12
#310
02
#320
0!
1"
b0 I
b10000110101000001000101 ?
b100 J
12
#330
02
#340
0(
1'
0"
b1 I
b100010001000001 ?
b0 J
12
#350
0;
02
#360
12
#370
1;
02
#380
1(
0'
1#
b10 I
b10011000100011001000100 ?
b1 J
12
#390
02
#400
0(
1!
0#
1$
b10 I
b100110001000100 ?
b10 J
12
#410
02
#420
12
#430
02
#440
12
#450
b110 I
17
02
#460
1(
0!
1&
0$
b110 I
b10001100100011001010011 ?
b110 J
12
#470
b111 I
07
02
#480
1!
0&
1%
b101 I
b10011000100000101000110 ?
b111 J
12
#490
b10 I
08
02
#500
0(
1!
1$
0%
b10 I
b100110001000100 ?
b10 J
12
#510
b101 I
0:
02
#520
1(
0$
b100 I
b100110001010000 ?
b101 J
12
#530
02
#540
0!
1"
b0 I
b10000110101000001000101 ?
b100 J
12
#550
02
#560
0(
1'
0"
b100010001000001 ?
b0 J
12
#570
0;
02
#580
12
#590
1;
02
#600
12
#610
02
#620
12
#630
b1 I
1:
02
#640
1(
0'
1#
b10 I
b10011000100011001000100 ?
b1 J
12
#650
02
#660
0(
1!
0#
1$
b10 I
b100110001000100 ?
b10 J
12
#670
b101 I
0:
02
#680
1(
0$
b100 I
b100110001010000 ?
b101 J
12
#690
02
#700
0!
1"
b0 I
b10000110101000001000101 ?
b100 J
12
#710
b110 I
17
02
#720
1(
1&
0"
b110 I
b10001100100011001010011 ?
b110 J
12
#730
b111 I
07
02
#740
1!
0&
1%
b10 I
b10011000100000101000110 ?
b111 J
12
#750
b0 I
19
02
#760
0(
0!
1'
0%
b100010001000001 ?
b0 J
12
#770
0;
02
#780
12
#790
1;
02
